<define-tag pagetitle>DLA-2910-1 ldns</define-tag>
<define-tag report_date>2022-02-04</define-tag>
<define-tag secrefs>CVE-2020-19860 CVE-2020-19861 CVE-2017-1000231 CVE-2017-1000232</define-tag>
<define-tag packages>ldns</define-tag>
<define-tag isvulnerable>yes</define-tag>
<define-tag fixed>yes</define-tag>
<define-tag fixed-section>no</define-tag>

#use wml::debian::security
