<define-tag pagetitle>DLA-3115-1 e17</define-tag>
<define-tag report_date>2022-09-19</define-tag>
<define-tag secrefs>CVE-2022-37706</define-tag>
<define-tag packages>e17</define-tag>
<define-tag isvulnerable>yes</define-tag>
<define-tag fixed>yes</define-tag>
<define-tag fixed-section>no</define-tag>

#use wml::debian::security

