<define-tag pagetitle>DSA-4917-1 chromium</define-tag>
<define-tag report_date>2021-5-17</define-tag>
<define-tag secrefs>CVE-2021-30506 CVE-2021-30507 CVE-2021-30508 CVE-2021-30509 CVE-2021-30510 CVE-2021-30511 CVE-2021-30512 CVE-2021-30513 CVE-2021-30514 CVE-2021-30515 CVE-2021-30516 CVE-2021-30517 CVE-2021-30518 CVE-2021-30519 CVE-2021-30520</define-tag>
<define-tag packages>chromium</define-tag>
<define-tag isvulnerable>yes</define-tag>
<define-tag fixed>yes</define-tag>
<define-tag fixed-section>no</define-tag>

#use wml::debian::security



</dl>
