<define-tag pagetitle>DSA-4923-1 webkit2gtk</define-tag>
<define-tag report_date>2021-5-30</define-tag>
<define-tag secrefs>CVE-2021-1788 CVE-2021-1844 CVE-2021-1871</define-tag>
<define-tag packages>webkit2gtk</define-tag>
<define-tag isvulnerable>yes</define-tag>
<define-tag fixed>yes</define-tag>
<define-tag fixed-section>no</define-tag>

#use wml::debian::security



</dl>
