<define-tag pagetitle>DSA-4786-1 libexif</define-tag>
<define-tag report_date>2020-11-08</define-tag>
<define-tag secrefs>CVE-2020-0452</define-tag>
<define-tag packages>libexif</define-tag>
<define-tag isvulnerable>yes</define-tag>
<define-tag fixed>yes</define-tag>
<define-tag fixed-section>no</define-tag>

#use wml::debian::security



</dl>
