<define-tag pagetitle>DSA-4680-1 tomcat9</define-tag>
<define-tag report_date>2020-5-06</define-tag>
<define-tag secrefs>CVE-2019-10072 CVE-2019-12418 CVE-2019-17563 CVE-2019-17569 CVE-2020-1935 CVE-2020-1938</define-tag>
<define-tag packages>tomcat9</define-tag>
<define-tag isvulnerable>yes</define-tag>
<define-tag fixed>yes</define-tag>
<define-tag fixed-section>no</define-tag>

#use wml::debian::security



</dl>
