<define-tag pagetitle>DSA-4774-1 linux</define-tag>
<define-tag report_date>2020-10-19</define-tag>
<define-tag secrefs>CVE-2020-12351 CVE-2020-12352 CVE-2020-25211 CVE-2020-25643 CVE-2020-25645 Bug#908712</define-tag>
<define-tag packages>linux</define-tag>
<define-tag isvulnerable>yes</define-tag>
<define-tag fixed>yes</define-tag>
<define-tag fixed-section>no</define-tag>

#use wml::debian::security



</dl>
