<define-tag pagetitle>DLA-2515-1 csync2</define-tag>
<define-tag report_date>2021-01-04</define-tag>
<define-tag secrefs>CVE-2019-15523</define-tag>
<define-tag packages>csync2</define-tag>
<define-tag isvulnerable>yes</define-tag>
<define-tag fixed>yes</define-tag>
<define-tag fixed-section>no</define-tag>

#use wml::debian::security
