<define-tag pagetitle>DLA-2567-1 unrar-free</define-tag>
<define-tag report_date>2021-2-18</define-tag>
<define-tag secrefs>CVE-2017-14120 CVE-2017-14121 CVE-2017-14122</define-tag>
<define-tag packages>unrar-free</define-tag>
<define-tag isvulnerable>yes</define-tag>
<define-tag fixed>yes</define-tag>
<define-tag fixed-section>no</define-tag>

#use wml::debian::security

