<define-tag pagetitle>DSA-5467-1 chromium</define-tag>
<define-tag report_date>2023-8-04</define-tag>
<define-tag secrefs>CVE-2023-4068 CVE-2023-4069 CVE-2023-4070 CVE-2023-4071 CVE-2023-4072 CVE-2023-4073 CVE-2023-4074 CVE-2023-4075 CVE-2023-4076 CVE-2023-4077 CVE-2023-4078</define-tag>
<define-tag packages>chromium</define-tag>
<define-tag isvulnerable>yes</define-tag>
<define-tag fixed>yes</define-tag>
<define-tag fixed-section>no</define-tag>

#use wml::debian::security



</dl>
