<define-tag pagetitle>DSA-5390-1 chromium</define-tag>
<define-tag report_date>2023-4-16</define-tag>
<define-tag secrefs>CVE-2023-2033 Bug#1034406</define-tag>
<define-tag packages>chromium</define-tag>
<define-tag isvulnerable>yes</define-tag>
<define-tag fixed>yes</define-tag>
<define-tag fixed-section>no</define-tag>

#use wml::debian::security



</dl>
