<define-tag pagetitle>DSA-5486-1 json-c</define-tag>
<define-tag report_date>2023-8-30</define-tag>
<define-tag secrefs>CVE-2021-32292</define-tag>
<define-tag packages>json-c</define-tag>
<define-tag isvulnerable>yes</define-tag>
<define-tag fixed>yes</define-tag>
<define-tag fixed-section>no</define-tag>

#use wml::debian::security



</dl>
