<define-tag pagetitle>DSA-5489-1 file</define-tag>
<define-tag report_date>2023-9-04</define-tag>
<define-tag secrefs>CVE-2022-48554</define-tag>
<define-tag packages>file</define-tag>
<define-tag isvulnerable>yes</define-tag>
<define-tag fixed>yes</define-tag>
<define-tag fixed-section>no</define-tag>

#use wml::debian::security



</dl>
