<define-tag pagetitle>DSA-5348-1 haproxy</define-tag>
<define-tag report_date>2023-2-14</define-tag>
<define-tag secrefs>CVE-2023-0056 CVE-2023-25725</define-tag>
<define-tag packages>haproxy</define-tag>
<define-tag isvulnerable>yes</define-tag>
<define-tag fixed>yes</define-tag>
<define-tag fixed-section>no</define-tag>

#use wml::debian::security



</dl>
