<define-tag pagetitle>DSA-5533-1 gst-plugins-bad1.0</define-tag>
<define-tag report_date>2023-10-24</define-tag>
<define-tag secrefs>CVE-2023-40474 CVE-2023-40475 CVE-2023-40476 Bug#1053259 Bug#1053260 Bug#1053261</define-tag>
<define-tag packages>gst-plugins-bad1.0</define-tag>
<define-tag isvulnerable>yes</define-tag>
<define-tag fixed>yes</define-tag>
<define-tag fixed-section>no</define-tag>

#use wml::debian::security



</dl>
