<define-tag pagetitle>DLA-823-2 tomcat7</define-tag>
<define-tag report_date>2017-2-22</define-tag>
<define-tag secrefs>CVE-2017-6056 Bug#854551</define-tag>
<define-tag packages>tomcat7</define-tag>
<define-tag isvulnerable>yes</define-tag>
<define-tag fixed>yes</define-tag>
<define-tag fixed-section>no</define-tag>

#use wml::debian::security

