<define-tag pagetitle>DLA-859-1 calibre</define-tag>
<define-tag report_date>2017-3-17</define-tag>
<define-tag secrefs>CVE-2016-10187 Bug#853004</define-tag>
<define-tag packages>calibre</define-tag>
<define-tag isvulnerable>yes</define-tag>
<define-tag fixed>yes</define-tag>
<define-tag fixed-section>no</define-tag>

#use wml::debian::security

