<define-tag pagetitle>DLA-849-1 linux</define-tag>
<define-tag report_date>2017-3-9</define-tag>
<define-tag secrefs>CVE-2016-9588 CVE-2017-2636 CVE-2017-5669 CVE-2017-5986 CVE-2017-6214 CVE-2017-6345 CVE-2017-6346 CVE-2017-6348 CVE-2017-6353</define-tag>
<define-tag packages>linux</define-tag>
<define-tag isvulnerable>yes</define-tag>
<define-tag fixed>yes</define-tag>
<define-tag fixed-section>no</define-tag>

#use wml::debian::security

