<define-tag pagetitle>DLA-889-1 potrace</define-tag>
<define-tag report_date>2017-4-9</define-tag>
<define-tag secrefs>CVE-2016-8685 Bug#843861</define-tag>
<define-tag packages>potrace</define-tag>
<define-tag isvulnerable>yes</define-tag>
<define-tag fixed>yes</define-tag>
<define-tag fixed-section>no</define-tag>

#use wml::debian::security

