<define-tag pagetitle>DLA-1008-1 libxml2</define-tag>
<define-tag report_date>2017-6-30</define-tag>
<define-tag secrefs>CVE-2017-7375 CVE-2017-9047 CVE-2017-9048 CVE-2017-9049 CVE-2017-9050</define-tag>
<define-tag packages>libxml2</define-tag>
<define-tag isvulnerable>yes</define-tag>
<define-tag fixed>yes</define-tag>
<define-tag fixed-section>no</define-tag>

#use wml::debian::security

