<define-tag pagetitle>DLA-3581-1 flac</define-tag>
<define-tag report_date>2023-09-25</define-tag>
<define-tag secrefs>CVE-2020-22219</define-tag>
<define-tag packages>flac</define-tag>
<define-tag isvulnerable>yes</define-tag>
<define-tag fixed>yes</define-tag>
<define-tag fixed-section>no</define-tag>

#use wml::debian::security

