<define-tag pagetitle>DLA-3527-1 sox</define-tag>
<define-tag report_date>2023-08-13</define-tag>
<define-tag secrefs>CVE-2023-32627 Bug#1041112</define-tag>
<define-tag packages>sox</define-tag>
<define-tag isvulnerable>yes</define-tag>
<define-tag fixed>yes</define-tag>
<define-tag fixed-section>no</define-tag>

#use wml::debian::security

