<define-tag pagetitle>DLA-3487-1 fusiondirectory</define-tag>
<define-tag report_date>2023-07-08</define-tag>
<define-tag secrefs>CVE-2022-36179 CVE-2022-36180</define-tag>
<define-tag packages>fusiondirectory</define-tag>
<define-tag isvulnerable>yes</define-tag>
<define-tag fixed>yes</define-tag>
<define-tag fixed-section>no</define-tag>

#use wml::debian::security

