<define-tag pagetitle>DLA-3547-1 tryton-server</define-tag>
<define-tag report_date>2023-08-29</define-tag>
<define-tag packages>tryton-server</define-tag>
<define-tag isvulnerable>yes</define-tag>
<define-tag fixed>yes</define-tag>
<define-tag fixed-section>no</define-tag>

#use wml::debian::security

