<define-tag pagetitle>DLA-3532-1 openssh</define-tag>
<define-tag report_date>2023-08-17</define-tag>
<define-tag secrefs>CVE-2023-38408 Bug#1042460</define-tag>
<define-tag packages>openssh</define-tag>
<define-tag isvulnerable>yes</define-tag>
<define-tag fixed>yes</define-tag>
<define-tag fixed-section>no</define-tag>

#use wml::debian::security

