<define-tag pagetitle>DLA-3312-1 shim</define-tag>
<define-tag report_date>2023-02-08</define-tag>
<define-tag packages>shim</define-tag>
<define-tag isvulnerable>yes</define-tag>
<define-tag fixed>yes</define-tag>
<define-tag fixed-section>no</define-tag>

#use wml::debian::security

