<define-tag pagetitle>DLA-3548-1 qpdf</define-tag>
<define-tag report_date>2023-8-29</define-tag>
<define-tag secrefs>CVE-2018-18020 CVE-2021-25786 CVE-2021-36978</define-tag>
<define-tag packages>qpdf</define-tag>
<define-tag isvulnerable>yes</define-tag>
<define-tag fixed>yes</define-tag>
<define-tag fixed-section>no</define-tag>

#use wml::debian::security

