<define-tag pagetitle>DLA-3393-1 protobuf</define-tag>
<define-tag report_date>2023-04-18</define-tag>
<define-tag secrefs>CVE-2021-22569 CVE-2021-22570 CVE-2022-1941</define-tag>
<define-tag packages>protobuf</define-tag>
<define-tag isvulnerable>yes</define-tag>
<define-tag fixed>yes</define-tag>
<define-tag fixed-section>no</define-tag>

#use wml::debian::security

