<define-tag pagetitle>DLA-3436-2 sssd</define-tag>
<define-tag report_date>2023-05-31</define-tag>
<define-tag packages>sssd</define-tag>
<define-tag isvulnerable>no</define-tag>
<define-tag fixed>yes</define-tag>
<define-tag fixed-section>no</define-tag>

#use wml::debian::security

