<define-tag pagetitle>DLA-2098-1 ipmitool</define-tag>
<define-tag report_date>2020-2-9</define-tag>
<define-tag secrefs>CVE-2020-5208 Bug#950761</define-tag>
<define-tag packages>ipmitool</define-tag>
<define-tag isvulnerable>yes</define-tag>
<define-tag fixed>yes</define-tag>
<define-tag fixed-section>no</define-tag>

#use wml::debian::security

