<define-tag pagetitle>DLA-2134-1 pdfresurrect</define-tag>
<define-tag report_date>2020-03-05</define-tag>
<define-tag secrefs>CVE-2020-9549</define-tag>
<define-tag packages>pdfresurrect</define-tag>
<define-tag isvulnerable>yes</define-tag>
<define-tag fixed>yes</define-tag>
<define-tag fixed-section>no</define-tag>

#use wml::debian::security
