<define-tag pagetitle>DLA-1572-1 nginx</define-tag>
<define-tag report_date>2018-11-8</define-tag>
<define-tag secrefs>CVE-2018-16845 Bug##913090</define-tag>
<define-tag packages>nginx</define-tag>
<define-tag isvulnerable>yes</define-tag>
<define-tag fixed>yes</define-tag>
<define-tag fixed-section>no</define-tag>

#use wml::debian::security

