<define-tag pagetitle>DLA-1566-1 mysql-5.5</define-tag>
<define-tag report_date>2018-11-5</define-tag>
<define-tag secrefs>CVE-2018-2767 CVE-2018-3058 CVE-2018-3063 CVE-2018-3066 CVE-2018-3070 CVE-2018-3081 CVE-2018-3133 CVE-2018-3174 CVE-2018-3282</define-tag>
<define-tag packages>mysql-5.5</define-tag>
<define-tag isvulnerable>yes</define-tag>
<define-tag fixed>yes</define-tag>
<define-tag fixed-section>no</define-tag>

#use wml::debian::security

