<define-tag pagetitle>DSA-4392-1 thunderbird</define-tag>
<define-tag report_date>2019-2-16</define-tag>
<define-tag secrefs>CVE-2018-18356 CVE-2018-18500 CVE-2018-18501 CVE-2018-18505 CVE-2018-18509 CVE-2018-18512 CVE-2018-18513 CVE-2019-5785</define-tag>
<define-tag packages>thunderbird</define-tag>
<define-tag isvulnerable>yes</define-tag>
<define-tag fixed>yes</define-tag>
<define-tag fixed-section>no</define-tag>

#use wml::debian::security



</dl>
