<define-tag pagetitle>DSA-5277-1 php7.4</define-tag>
<define-tag report_date>2022-11-13</define-tag>
<define-tag secrefs>CVE-2022-31630 CVE-2022-37454 CVE-2022-31629 CVE-2022-31628</define-tag>
<define-tag packages>php7.4</define-tag>
<define-tag isvulnerable>yes</define-tag>
<define-tag fixed>yes</define-tag>
<define-tag fixed-section>no</define-tag>

#use wml::debian::security



</dl>
