<define-tag pagetitle>DSA-5174-1 gnupg2</define-tag>
<define-tag report_date>2022-7-03</define-tag>
<define-tag secrefs>CVE-2022-34903 Bug#1014157</define-tag>
<define-tag packages>gnupg2</define-tag>
<define-tag isvulnerable>yes</define-tag>
<define-tag fixed>yes</define-tag>
<define-tag fixed-section>no</define-tag>

#use wml::debian::security



</dl>
