<define-tag pagetitle>DSA-5066-1 ruby2.5</define-tag>
<define-tag report_date>2022-2-03</define-tag>
<define-tag secrefs>CVE-2021-28965 CVE-2021-31799 CVE-2021-31810 CVE-2021-41817 CVE-2021-41819 CVE-2021-32066</define-tag>
<define-tag packages>ruby2.5</define-tag>
<define-tag isvulnerable>yes</define-tag>
<define-tag fixed>yes</define-tag>
<define-tag fixed-section>no</define-tag>

#use wml::debian::security



</dl>
