<define-tag pagetitle>DSA-5171-1 squid</define-tag>
<define-tag report_date>2022-6-27</define-tag>
<define-tag secrefs>CVE-2021-28116 CVE-2021-46784</define-tag>
<define-tag packages>squid</define-tag>
<define-tag isvulnerable>yes</define-tag>
<define-tag fixed>yes</define-tag>
<define-tag fixed-section>no</define-tag>

#use wml::debian::security



</dl>
