<define-tag pagetitle>DSA-5075-1 minetest</define-tag>
<define-tag report_date>2022-2-14</define-tag>
<define-tag secrefs>CVE-2022-24300 CVE-2022-24301 Bug#1004223</define-tag>
<define-tag packages>minetest</define-tag>
<define-tag isvulnerable>yes</define-tag>
<define-tag fixed>yes</define-tag>
<define-tag fixed-section>no</define-tag>

#use wml::debian::security



</dl>
