<define-tag pagetitle>DLA-2007-1 ruby2.1</define-tag>
<define-tag report_date>2019-11-25</define-tag>
<define-tag secrefs>CVE-2019-15845 CVE-2019-16201 CVE-2019-16254 CVE-2019-16255</define-tag>
<define-tag packages>ruby2.1</define-tag>
<define-tag isvulnerable>yes</define-tag>
<define-tag fixed>yes</define-tag>
<define-tag fixed-section>no</define-tag>

#use wml::debian::security

